{
  "uuid": "52a91e2c-d968-4cf6-bd5a-80b70d67471c",
  "lastMigration": 19,
  "name": "Audit API",
  "endpointPrefix": "beta/audit",
  "latency": 0,
  "port": 3000,
  "hostname": "0.0.0.0",
  "routes": [
    {
      "uuid": "ad337a0d-c59f-4457-afe7-3744de8a9fd3",
      "documentation": "Retrieve audit events",
      "method": "get",
      "endpoint": "events",
      "responses": [
        {
          "uuid": "bc5f7611-b725-4a04-bd1f-9b03df0d50f1",
          "body": "{\n  \"_embedded\": {\n    \"events\": [\n      {\n        \"_links\": {\n          \"self\": {\n            \"href\": \"https://api.nexmo.com/beta/audit/events/aaaaaaaa-bbbb-cccc-dddd-0123456789ab\"\n          }\n        },\n        \"account_id\": \"abcd1234\",\n        \"context\": {\n          \"created\": {\n            \"accountId\": \"abcdef01\",\n            \"answer_url\": {\n              \"method\": \"GET\",\n              \"url\": \"https://example.org/call\"\n            },\n            \"appId\": \"aaaaaaaa-bbbb-cccc-dddd-0123456789ab\",\n            \"event_url\": {\n              \"method\": \"POST\",\n              \"url\": \"https://example.org/event\"\n            },\n            \"name\": \"My voice app\",\n            \"type\": \"voice\"\n          }\n        },\n        \"created_at\": \"2018-07-04T11:41:32\",\n        \"event_type\": \"{{oneOf (array 'USER_STATUS' 'USER_UPDATE' 'USER_BILLING_UPDATE' 'USER_CREATE' 'USER_LOGIN' 'USER_LOGOUT' 'USER_PRODUCT_SEARCH' 'USER_API_KEYS_UPDATE' 'ACCOUNT_SECRET_DELETE' 'ACCOUNT_SECRET_CREATE' 'ACCOUNT_UPDATE_SPAMMER' 'ACCOUNT_UPDATE_SETTINGS_API' 'NUMBER_ASSIGN' 'NUMBER_UPDATED' 'NUMBER_RELEASE' 'NUMBER_LINKED' 'NUMBER_UNLINKED' 'APP_CREATE' 'APP_UPDATE' 'APP_DELETE' 'APP_DISABLE' 'APP_ENABLE' 'IP_WHITELIST_CREATE' 'IP_WHITELIST_DELETE' 'AUTORELOAD_ENABLE' 'AUTORELOAD_UPDATE' 'AUTORELOAD_DISABLE')}}\",\n        \"event_type_description\": \"Application created.\",\n        \"id\": \"aaaaaaaa-bbbb-cccc-dddd-0123456789ab\",\n        \"source\": \"{{oneOf (array 'CD' 'DEVAPI')}}\",\n        \"source_country\": \"GB\",\n        \"source_description\": \"{{oneOf (array 'Customer Dashboard' 'Developer API')}}\",\n        \"source_ip\": \"192.0.2.0\",\n        \"user_email\": \"user@example.org\",\n        \"user_id\": 1234567\n      }\n    ]\n  },\n  \"_links\": {\n    \"last\": {\n      \"href\": \"http://api.nexmo.com/beta/audit/events?page=2&size=30\"\n    },\n    \"next\": {\n      \"href\": \"http://api.nexmo.com/beta/audit/events?page=2&size=30\"\n    },\n    \"self\": {\n      \"href\": \"http://api.nexmo.com/beta/audit/events\"\n    }\n  },\n  \"page\": {\n    \"number\": 1,\n    \"size\": 100,\n    \"totalElements\": 120,\n    \"totalPages\": 2\n  }\n}",
          "latency": 0,
          "statusCode": 200,
          "label": "OK",
          "headers": [
            {
              "key": "Content-Type",
              "value": "application/json"
            }
          ],
          "filePath": "",
          "sendFileAsBody": false,
          "rules": [],
          "rulesOperator": "OR",
          "disableTemplating": false,
          "fallbackTo404": false
        },
        {
          "uuid": "b47c2410-cd5f-4f96-94cb-8a1e8182ee67",
          "body": "{\n  \"error\": \"Unauthorized\",\n  \"message\": \"Full authentication is required. JWT was not found in \\\"Authorization\\\" HTTP header.\",\n  \"status\": 401\n}",
          "latency": 0,
          "statusCode": 401,
          "label": "Unauthorized",
          "headers": [
            {
              "key": "Content-Type",
              "value": "application/json"
            }
          ],
          "filePath": "",
          "sendFileAsBody": false,
          "rules": [],
          "rulesOperator": "OR",
          "disableTemplating": false,
          "fallbackTo404": false
        },
        {
          "uuid": "54ef5cca-b4f9-4d52-adb9-21d5543ccc73",
          "body": "{\n  \"error\": \"Forbidden\",\n  \"message\": \"An example goes here\",\n  \"status\": 403\n}",
          "latency": 0,
          "statusCode": 403,
          "label": "Forbidden",
          "headers": [
            {
              "key": "Content-Type",
              "value": "application/json"
            }
          ],
          "filePath": "",
          "sendFileAsBody": false,
          "rules": [],
          "rulesOperator": "OR",
          "disableTemplating": false,
          "fallbackTo404": false
        },
        {
          "uuid": "26761bcf-9072-4f34-b427-7a9aacf4752f",
          "body": "{\n  \"error\": \"Not Found\",\n  \"message\": \"Event with provided id: aaaaaaaa-bbbb-cccc-dddd-0123456789ab was not found\",\n  \"status\": 404\n}",
          "latency": 0,
          "statusCode": 404,
          "label": "Not Found",
          "headers": [
            {
              "key": "Content-Type",
              "value": "application/json"
            }
          ],
          "filePath": "",
          "sendFileAsBody": false,
          "rules": [],
          "rulesOperator": "OR",
          "disableTemplating": false,
          "fallbackTo404": false
        }
      ],
      "enabled": true,
      "randomResponse": false,
      "sequentialResponse": false
    },
    {
      "uuid": "b73e2ec3-64f1-41f5-a3a6-8bfce991090f",
      "documentation": "Retrieve audit event types",
      "method": "options",
      "endpoint": "events",
      "responses": [
        {
          "uuid": "ca307e0a-6914-4408-a5d8-20c4a0d3a58b",
          "body": "{\n  \"eventTypes\": [\n    {\n      \"description\": \"Application created.\",\n      \"type\": \"{{oneOf (array 'USER_STATUS' 'USER_UPDATE' 'USER_BILLING_UPDATE' 'USER_CREATE' 'USER_LOGIN' 'USER_LOGOUT' 'USER_PRODUCT_SEARCH' 'USER_API_KEYS_UPDATE' 'ACCOUNT_SECRET_DELETE' 'ACCOUNT_SECRET_CREATE' 'ACCOUNT_UPDATE_SPAMMER' 'ACCOUNT_UPDATE_SETTINGS_API' 'NUMBER_ASSIGN' 'NUMBER_UPDATED' 'NUMBER_RELEASE' 'NUMBER_LINKED' 'NUMBER_UNLINKED' 'APP_CREATE' 'APP_UPDATE' 'APP_DELETE' 'APP_DISABLE' 'APP_ENABLE' 'IP_WHITELIST_CREATE' 'IP_WHITELIST_DELETE' 'AUTORELOAD_ENABLE' 'AUTORELOAD_UPDATE' 'AUTORELOAD_DISABLE')}}\"\n    }\n  ]\n}",
          "latency": 0,
          "statusCode": 200,
          "label": "OK",
          "headers": [
            {
              "key": "Content-Type",
              "value": "application/json"
            }
          ],
          "filePath": "",
          "sendFileAsBody": false,
          "rules": [],
          "rulesOperator": "OR",
          "disableTemplating": false,
          "fallbackTo404": false
        },
        {
          "uuid": "41429332-ad91-44dc-8fac-af1b5f9e3dd2",
          "body": "{\n  \"error\": \"No Content\",\n  \"message\": \"No content\",\n  \"status\": 204\n}",
          "latency": 0,
          "statusCode": 204,
          "label": "No Content",
          "headers": [
            {
              "key": "Content-Type",
              "value": "application/json"
            }
          ],
          "filePath": "",
          "sendFileAsBody": false,
          "rules": [],
          "rulesOperator": "OR",
          "disableTemplating": false,
          "fallbackTo404": false
        },
        {
          "uuid": "fee34a6e-5679-44a9-837d-ebbbc4945851",
          "body": "{\n  \"error\": \"Unauthorized\",\n  \"message\": \"Full authentication is required. JWT was not found in \\\"Authorization\\\" HTTP header.\",\n  \"status\": 401\n}",
          "latency": 0,
          "statusCode": 401,
          "label": "Unauthorized",
          "headers": [
            {
              "key": "Content-Type",
              "value": "application/json"
            }
          ],
          "filePath": "",
          "sendFileAsBody": false,
          "rules": [],
          "rulesOperator": "OR",
          "disableTemplating": false,
          "fallbackTo404": false
        },
        {
          "uuid": "cd98f8bb-050b-41d1-a22f-95b6bd96a986",
          "body": "{\n  \"error\": \"Forbidden\",\n  \"message\": \"An example goes here\",\n  \"status\": 403\n}",
          "latency": 0,
          "statusCode": 403,
          "label": "Forbidden",
          "headers": [
            {
              "key": "Content-Type",
              "value": "application/json"
            }
          ],
          "filePath": "",
          "sendFileAsBody": false,
          "rules": [],
          "rulesOperator": "OR",
          "disableTemplating": false,
          "fallbackTo404": false
        }
      ],
      "enabled": true,
      "randomResponse": false,
      "sequentialResponse": false
    },
    {
      "uuid": "e8bb72d1-fb85-4e5a-bb9a-f34b387f0373",
      "documentation": "Retrieve individual audit event",
      "method": "get",
      "endpoint": "events/:id",
      "responses": [
        {
          "uuid": "4c14d73c-fbde-4783-958f-38bbfb2bde9f",
          "body": "{\n  \"_links\": {\n    \"self\": {\n      \"href\": \"https://api.nexmo.com/beta/audit/events/aaaaaaaa-bbbb-cccc-dddd-0123456789ab\"\n    }\n  },\n  \"account_id\": \"abcd1234\",\n  \"context\": {\n    \"created\": {\n      \"accountId\": \"abcdef01\",\n      \"answer_url\": {\n        \"method\": \"GET\",\n        \"url\": \"https://example.org/call\"\n      },\n      \"appId\": \"aaaaaaaa-bbbb-cccc-dddd-0123456789ab\",\n      \"event_url\": {\n        \"method\": \"POST\",\n        \"url\": \"https://example.org/event\"\n      },\n      \"name\": \"My voice app\",\n      \"type\": \"voice\"\n    }\n  },\n  \"created_at\": \"2018-07-04T11:41:32\",\n  \"event_type\": \"{{oneOf (array 'USER_STATUS' 'USER_UPDATE' 'USER_BILLING_UPDATE' 'USER_CREATE' 'USER_LOGIN' 'USER_LOGOUT' 'USER_PRODUCT_SEARCH' 'USER_API_KEYS_UPDATE' 'ACCOUNT_SECRET_DELETE' 'ACCOUNT_SECRET_CREATE' 'ACCOUNT_UPDATE_SPAMMER' 'ACCOUNT_UPDATE_SETTINGS_API' 'NUMBER_ASSIGN' 'NUMBER_UPDATED' 'NUMBER_RELEASE' 'NUMBER_LINKED' 'NUMBER_UNLINKED' 'APP_CREATE' 'APP_UPDATE' 'APP_DELETE' 'APP_DISABLE' 'APP_ENABLE' 'IP_WHITELIST_CREATE' 'IP_WHITELIST_DELETE' 'AUTORELOAD_ENABLE' 'AUTORELOAD_UPDATE' 'AUTORELOAD_DISABLE')}}\",\n  \"event_type_description\": \"Application created.\",\n  \"id\": \"aaaaaaaa-bbbb-cccc-dddd-0123456789ab\",\n  \"source\": \"{{oneOf (array 'CD' 'DEVAPI')}}\",\n  \"source_country\": \"GB\",\n  \"source_description\": \"{{oneOf (array 'Customer Dashboard' 'Developer API')}}\",\n  \"source_ip\": \"192.0.2.0\",\n  \"user_email\": \"user@example.org\",\n  \"user_id\": 1234567\n}",
          "latency": 0,
          "statusCode": 200,
          "label": "OK",
          "headers": [
            {
              "key": "Content-Type",
              "value": "application/json"
            }
          ],
          "filePath": "",
          "sendFileAsBody": false,
          "rules": [],
          "rulesOperator": "OR",
          "disableTemplating": false,
          "fallbackTo404": false
        },
        {
          "uuid": "dc90f759-d871-4b53-8fe4-cdea75c8fa03",
          "body": "{\n  \"error\": \"Unauthorized\",\n  \"message\": \"Full authentication is required. JWT was not found in \\\"Authorization\\\" HTTP header.\",\n  \"status\": 401\n}",
          "latency": 0,
          "statusCode": 401,
          "label": "Unauthorized",
          "headers": [
            {
              "key": "Content-Type",
              "value": "application/json"
            }
          ],
          "filePath": "",
          "sendFileAsBody": false,
          "rules": [],
          "rulesOperator": "OR",
          "disableTemplating": false,
          "fallbackTo404": false
        },
        {
          "uuid": "49c46116-f35f-42d7-9487-7d78dfd11808",
          "body": "{\n  \"error\": \"Not Found\",\n  \"message\": \"Event with provided id: aaaaaaaa-bbbb-cccc-dddd-0123456789ab was not found\",\n  \"status\": 404\n}",
          "latency": 0,
          "statusCode": 404,
          "label": "Not Found",
          "headers": [
            {
              "key": "Content-Type",
              "value": "application/json"
            }
          ],
          "filePath": "",
          "sendFileAsBody": false,
          "rules": [],
          "rulesOperator": "OR",
          "disableTemplating": false,
          "fallbackTo404": false
        }
      ],
      "enabled": true,
      "randomResponse": false,
      "sequentialResponse": false
    }
  ],
  "proxyMode": false,
  "proxyHost": "",
  "proxyRemovePrefix": false,
  "tlsOptions": {
    "enabled": false,
    "type": "CERT",
    "pfxPath": "",
    "certPath": "",
    "keyPath": "",
    "caPath": "",
    "passphrase": ""
  },
  "cors": true,
  "headers": [],
  "proxyReqHeaders": [
    {
      "key": "",
      "value": ""
    }
  ],
  "proxyResHeaders": [
    {
      "key": "",
      "value": ""
    }
  ]
}