{
  "uuid": "97604cc6-812f-4474-922c-1c00112d7d92",
  "lastMigration": 19,
  "name": "User API",
  "endpointPrefix": "t/vbc.prod/provisioning",
  "latency": 0,
  "port": 3000,
  "hostname": "0.0.0.0",
  "routes": [
    {
      "uuid": "186d0c0b-98ff-4640-89d5-603676964e6e",
      "documentation": "Get account users data by account ID",
      "method": "get",
      "endpoint": "api/accounts/:account_id/users",
      "responses": [
        {
          "uuid": "49cff54b-8b28-4e88-b254-f2301f3bc84a",
          "body": "{\n  \"_embedded\": {\n    \"data\": [\n      {\n        \"contact_numbers\": [\n          {\n            \"type\": \"Home\",\n            \"value\": \"14155550100\"\n          }\n        ],\n        \"email\": \"john.smith@example.com\",\n        \"extensions\": [\n          {\n            \"dids\": [\n              {\n                \"custom_tag\": \"My Tag\",\n                \"phone_number\": \"14155550100\"\n              }\n            ],\n            \"extension_number\": \"789\"\n          }\n        ],\n        \"first_name\": \"John\",\n        \"id\": 869048,\n        \"last_name\": \"Smith\",\n        \"login_name\": \"jsmith\"\n      }\n    ]\n  },\n  \"_links\": {\n    \"first\": {\n      \"href\": \"\"\n    },\n    \"next\": {\n      \"href\": \"\"\n    },\n    \"prev\": {\n      \"href\": \"\"\n    },\n    \"self\": {\n      \"href\": \"\"\n    }\n  },\n  \"page\": 1,\n  \"page_size\": 10,\n  \"total_items\": 100,\n  \"total_pages\": 10\n}",
          "latency": 0,
          "statusCode": 200,
          "label": "Success",
          "headers": [
            {
              "key": "Content-Type",
              "value": "application/json"
            }
          ],
          "filePath": "",
          "sendFileAsBody": false,
          "rules": [],
          "rulesOperator": "OR",
          "disableTemplating": false,
          "fallbackTo404": false
        },
        {
          "uuid": "90943253-60be-445b-84fc-ed722093ed40",
          "body": "{\n  \"instance\": \"\",\n  \"invalid_parameters\": [\n    {\n      \"name\": \"\",\n      \"reason\": \"\"\n    }\n  ],\n  \"status\": {{faker 'random.number'}},\n  \"title\": \"\"\n}",
          "latency": 0,
          "statusCode": 400,
          "label": "Invalid parameters given",
          "headers": [
            {
              "key": "Content-Type",
              "value": "application/json"
            }
          ],
          "filePath": "",
          "sendFileAsBody": false,
          "rules": [],
          "rulesOperator": "OR",
          "disableTemplating": false,
          "fallbackTo404": false
        }
      ],
      "enabled": true,
      "randomResponse": false,
      "sequentialResponse": false
    },
    {
      "uuid": "a0d01e7a-3247-4138-9df2-0924306f5572",
      "documentation": "Get user data by account ID and user ID",
      "method": "get",
      "endpoint": "api/accounts/:account_id/users/:user_id",
      "responses": [
        {
          "uuid": "7cec17c6-4e95-4c5b-ba48-8ca59de4075a",
          "body": "{\n  \"_embedded\": {\n    \"data\": {\n      \"contact_numbers\": [\n        {\n          \"type\": \"Home\",\n          \"value\": \"14155550100\"\n        }\n      ],\n      \"email\": \"john.smith@example.com\",\n      \"extensions\": [\n        {\n          \"dids\": [\n            {\n              \"custom_tag\": \"My Tag\",\n              \"phone_number\": \"14155550100\"\n            }\n          ],\n          \"extension_number\": \"789\"\n        }\n      ],\n      \"first_name\": \"John\",\n      \"id\": 869048,\n      \"last_name\": \"Smith\",\n      \"login_name\": \"jsmith\"\n    }\n  },\n  \"_links\": {\n    \"first\": {\n      \"href\": \"\"\n    },\n    \"next\": {\n      \"href\": \"\"\n    },\n    \"prev\": {\n      \"href\": \"\"\n    },\n    \"self\": {\n      \"href\": \"\"\n    }\n  },\n  \"page\": 1,\n  \"page_size\": 10,\n  \"total_items\": 100,\n  \"total_pages\": 10\n}",
          "latency": 0,
          "statusCode": 200,
          "label": "Success",
          "headers": [
            {
              "key": "Content-Type",
              "value": "application/json"
            }
          ],
          "filePath": "",
          "sendFileAsBody": false,
          "rules": [],
          "rulesOperator": "OR",
          "disableTemplating": false,
          "fallbackTo404": false
        },
        {
          "uuid": "c4eba8a8-bf1d-41a0-a97a-fb0ce36202cf",
          "body": "{\n  \"msg\": \"\",\n  \"status\": {{faker 'random.number'}}\n}",
          "latency": 0,
          "statusCode": 404,
          "label": "User not found",
          "headers": [
            {
              "key": "Content-Type",
              "value": "application/json"
            }
          ],
          "filePath": "",
          "sendFileAsBody": false,
          "rules": [],
          "rulesOperator": "OR",
          "disableTemplating": false,
          "fallbackTo404": false
        }
      ],
      "enabled": true,
      "randomResponse": false,
      "sequentialResponse": false
    }
  ],
  "proxyMode": false,
  "proxyHost": "",
  "proxyRemovePrefix": false,
  "tlsOptions": {
    "enabled": false,
    "type": "CERT",
    "pfxPath": "",
    "certPath": "",
    "keyPath": "",
    "caPath": "",
    "passphrase": ""
  },
  "cors": true,
  "headers": [],
  "proxyReqHeaders": [
    {
      "key": "",
      "value": ""
    }
  ],
  "proxyResHeaders": [
    {
      "key": "",
      "value": ""
    }
  ]
}