{
  "uuid": "fe461ed4-9d4c-4696-be4b-7f30964116ae",
  "lastMigration": 19,
  "name": "Reports API",
  "endpointPrefix": "t/vbc.prod/reports",
  "latency": 0,
  "port": 3000,
  "hostname": "0.0.0.0",
  "routes": [
    {
      "uuid": "6db57a28-4e7b-47ad-a8c7-e2a00fcc4bec",
      "documentation": "Retrieve call logs for your account",
      "method": "get",
      "endpoint": "accounts/:account_id/call-logs",
      "responses": [
        {
          "uuid": "f9a794de-ec23-4548-8a2a-ffaaf5e6b130",
          "body": "{\n  \"_embedded\": {\n    \"call_logs\": [\n      {\n        \"charge\": {{faker 'random.number'}},\n        \"destination_device_name\": \"Smith\",\n        \"destination_extension\": 1000,\n        \"destination_sip_id\": \"VH1111111\",\n        \"destination_user\": \"JSmith\",\n        \"destination_user_full_name\": \"John Smith\",\n        \"direction\": \"Inbound\",\n        \"end\": \"2019-01-01 00:00:00\",\n        \"from\": 17325550100,\n        \"id\": \"f27b937d-6dde-441a-9595-006e7302eac1\",\n        \"in_network\": true,\n        \"international\": {{faker 'random.boolean'}},\n        \"length\": 60,\n        \"rate\": {{faker 'random.number'}},\n        \"recorded\": true,\n        \"result\": \"Answered\",\n        \"source_device_name\": \"Smith\",\n        \"source_extension\": 1000,\n        \"source_sip_id\": \"VH1111111\",\n        \"source_user\": \"JSmith\",\n        \"source_user_full_name\": \"John Smith\",\n        \"start\": \"2019-01-01 00:00:00\",\n        \"to\": 17325550100\n      }\n    ]\n  },\n  \"_links\": {\n    \"first\": {\n      \"href\": \"\"\n    },\n    \"next\": {\n      \"href\": \"\"\n    },\n    \"prev\": {\n      \"href\": \"\"\n    },\n    \"self\": {\n      \"href\": \"\"\n    }\n  },\n  \"page\": 1,\n  \"page_size\": 10,\n  \"total_items\": 100,\n  \"total_page\": 10\n}",
          "latency": 0,
          "statusCode": 200,
          "label": "Success",
          "headers": [
            {
              "key": "Content-Type",
              "value": "application/json"
            }
          ],
          "filePath": "",
          "sendFileAsBody": false,
          "rules": [],
          "rulesOperator": "OR",
          "disableTemplating": false,
          "fallbackTo404": false
        },
        {
          "uuid": "54caa80e-1f63-44d6-82cc-60a71515bf64",
          "body": "{\n  \"instance\": \"\",\n  \"invalid_parameters\": [\n    {\n      \"name\": \"\",\n      \"reason\": \"\"\n    }\n  ],\n  \"status\": {{faker 'random.number'}},\n  \"title\": \"\"\n}",
          "latency": 0,
          "statusCode": 400,
          "label": "Invalid parameters given",
          "headers": [
            {
              "key": "Content-Type",
              "value": "application/json"
            }
          ],
          "filePath": "",
          "sendFileAsBody": false,
          "rules": [],
          "rulesOperator": "OR",
          "disableTemplating": false,
          "fallbackTo404": false
        }
      ],
      "enabled": true,
      "randomResponse": false,
      "sequentialResponse": false
    }
  ],
  "proxyMode": false,
  "proxyHost": "",
  "proxyRemovePrefix": false,
  "tlsOptions": {
    "enabled": false,
    "type": "CERT",
    "pfxPath": "",
    "certPath": "",
    "keyPath": "",
    "caPath": "",
    "passphrase": ""
  },
  "cors": true,
  "headers": [],
  "proxyReqHeaders": [
    {
      "key": "",
      "value": ""
    }
  ],
  "proxyResHeaders": [
    {
      "key": "",
      "value": ""
    }
  ]
}