{
  "uuid": "2c4a4608-fda7-4d3a-a0a4-5c6c8b264bfa",
  "lastMigration": 19,
  "name": "Extension API",
  "endpointPrefix": "t/vbc.prod/provisioning",
  "latency": 0,
  "port": 3000,
  "hostname": "0.0.0.0",
  "routes": [
    {
      "uuid": "60ce4762-f2a0-4736-bed5-ec24af9b250c",
      "documentation": "Get account extensions data by account ID",
      "method": "get",
      "endpoint": "api/accounts/:account_id/extensions",
      "responses": [
        {
          "uuid": "f0af123e-d8ed-48c8-a981-af8c30651429",
          "body": "{\n  \"_embedded\": {\n    \"data\": {\n      \"block_caller_id\": {{faker 'random.boolean'}},\n      \"caller_id\": \"John Smith\",\n      \"dids\": [\n        {\n          \"custom_tag\": \"My Tag\",\n          \"phone_number\": \"14155550100\"\n        }\n      ],\n      \"dnd_enabled\": {{faker 'random.boolean'}},\n      \"extension_handsets\": [\n        {\n          \"handset_name\": \"line1-VH6370927\",\n          \"sip_id\": \"VH16370927\"\n        }\n      ],\n      \"extension_number\": \"789\",\n      \"location_id\": 145214,\n      \"user\": {\n        \"email\": \"john.smith@example.com\",\n        \"first_name\": \"John\",\n        \"last_name\": \"Smith\",\n        \"login_name\": \"jsmith\"\n      },\n      \"vtt_enabled\": true\n    }\n  },\n  \"_links\": {\n    \"first\": {\n      \"href\": \"\"\n    },\n    \"next\": {\n      \"href\": \"\"\n    },\n    \"prev\": {\n      \"href\": \"\"\n    },\n    \"self\": {\n      \"href\": \"\"\n    }\n  },\n  \"page\": 1,\n  \"page_size\": 10,\n  \"total_items\": 100,\n  \"total_pages\": 10\n}",
          "latency": 0,
          "statusCode": 200,
          "label": "Success",
          "headers": [
            {
              "key": "Content-Type",
              "value": "application/json"
            }
          ],
          "filePath": "",
          "sendFileAsBody": false,
          "rules": [],
          "rulesOperator": "OR",
          "disableTemplating": false,
          "fallbackTo404": false
        },
        {
          "uuid": "362a538a-d765-4db6-8d4e-e2e32ee42855",
          "body": "{\n  \"instance\": \"\",\n  \"invalid_parameters\": [\n    {\n      \"name\": \"\",\n      \"reason\": \"\"\n    }\n  ],\n  \"status\": {{faker 'random.number'}},\n  \"title\": \"\"\n}",
          "latency": 0,
          "statusCode": 400,
          "label": "Invalid parameters given",
          "headers": [
            {
              "key": "Content-Type",
              "value": "application/json"
            }
          ],
          "filePath": "",
          "sendFileAsBody": false,
          "rules": [],
          "rulesOperator": "OR",
          "disableTemplating": false,
          "fallbackTo404": false
        }
      ],
      "enabled": true,
      "randomResponse": false,
      "sequentialResponse": false
    },
    {
      "uuid": "ab8b643a-f7e6-4215-9e2f-a3751de28d47",
      "documentation": "Get extension data by account ID and extension number",
      "method": "get",
      "endpoint": "api/accounts/:account_id/extensions/:extension_number",
      "responses": [
        {
          "uuid": "a27c8bb8-cb45-401b-9d4a-b1c1cab2cb40",
          "body": "{\n  \"_embedded\": {\n    \"data\": {\n      \"block_caller_id\": {{faker 'random.boolean'}},\n      \"caller_id\": \"John Smith\",\n      \"dids\": [\n        {\n          \"custom_tag\": \"My Tag\",\n          \"phone_number\": \"14155550100\"\n        }\n      ],\n      \"dnd_enabled\": {{faker 'random.boolean'}},\n      \"extension_handsets\": [\n        {\n          \"handset_name\": \"line1-VH6370927\",\n          \"sip_id\": \"VH16370927\"\n        }\n      ],\n      \"extension_number\": \"789\",\n      \"location_id\": 145214,\n      \"user\": {\n        \"email\": \"john.smith@example.com\",\n        \"first_name\": \"John\",\n        \"last_name\": \"Smith\",\n        \"login_name\": \"jsmith\"\n      },\n      \"vtt_enabled\": true\n    }\n  },\n  \"_links\": {\n    \"first\": {\n      \"href\": \"\"\n    },\n    \"next\": {\n      \"href\": \"\"\n    },\n    \"prev\": {\n      \"href\": \"\"\n    },\n    \"self\": {\n      \"href\": \"\"\n    }\n  },\n  \"page\": 1,\n  \"page_size\": 10,\n  \"total_items\": 100,\n  \"total_pages\": 10\n}",
          "latency": 0,
          "statusCode": 200,
          "label": "Success",
          "headers": [
            {
              "key": "Content-Type",
              "value": "application/json"
            }
          ],
          "filePath": "",
          "sendFileAsBody": false,
          "rules": [],
          "rulesOperator": "OR",
          "disableTemplating": false,
          "fallbackTo404": false
        },
        {
          "uuid": "927d7bf0-f144-4e33-b6f6-cac558b8ebb4",
          "body": "{\n  \"msg\": \"\",\n  \"status\": {{faker 'random.number'}}\n}",
          "latency": 0,
          "statusCode": 404,
          "label": "Extension not found",
          "headers": [
            {
              "key": "Content-Type",
              "value": "application/json"
            }
          ],
          "filePath": "",
          "sendFileAsBody": false,
          "rules": [],
          "rulesOperator": "OR",
          "disableTemplating": false,
          "fallbackTo404": false
        }
      ],
      "enabled": true,
      "randomResponse": false,
      "sequentialResponse": false
    }
  ],
  "proxyMode": false,
  "proxyHost": "",
  "proxyRemovePrefix": false,
  "tlsOptions": {
    "enabled": false,
    "type": "CERT",
    "pfxPath": "",
    "certPath": "",
    "keyPath": "",
    "caPath": "",
    "passphrase": ""
  },
  "cors": true,
  "headers": [],
  "proxyReqHeaders": [
    {
      "key": "",
      "value": ""
    }
  ],
  "proxyResHeaders": [
    {
      "key": "",
      "value": ""
    }
  ]
}